{ "ele" : "544", "tpabr" : "uf", "cdabr" : "MT", "carper" : "1", "md" : "S", "t" : "1", "f" : "o", "dg" : "04/10/2022", "hg" : "12:07:43", "dt" : "02/10/2022", "ht" : "22:45:33", "dv" : "s", "tf" : "s", "v" : "1", "esae" : "n", "mnae" : "", "s" : "7652", "st" : "7652", "pst" : "100,00", "snt" : "0", "psnt" : "0,00", "si" : "7652", "psi" : "100,00", "sni" : "0", "psni" : "0,00", "sa" : "7652", "psa" : "100,00", "sna" : "0", "psna" : "0,00", "e" : "2469604", "ea" : "2469604", "pea" : "100,00", "ena" : "0", "pena" : "0,00", "esi" : "2469604", "pesi" : "100,00", "esni" : "0", "pesni" : "0,00", "c" : "1892180", "pc" : "76,62", "a" : "577424", "pa" : "23,38", "vscv" : "0", "vnom" : "1842888", "pvnom" : "100,00", "vvc" : "1842888", "pvvc" : "97,39", "vb" : "18680", "pvb" : "0,99", "tvn" : "30612", "ptvn" : "1,62", "vn" : "30612", "pvn" : "100,00", "vnt" : "0", "pvnt" : "0,00", "vp" : "0", "pvp" : "0,00", "vv" : "1842888", "pvv" : "100,00", "van" : "0", "pvan" : "0,00", "vansj" : "0", "pvansj" : "0,00", "tv" : "1892180", "cand" : [ 
{ "seq" : "1", "sqcand" : "280001618036", "n" : "22", "nm" : "JAIR BOLSONARO", "cc" : "PL - PP / REPUBLICANOS / PL", "nv" : "BRAGA NETTO", "e" : "s", "st" : "2º turno", "dvt" : "Válido", "vap" : "1102866", "pvap" : "59,84" }, 
{ "seq" : "2", "sqcand" : "280001607829", "n" : "13", "nm" : "LULA", "cc" : "PT - Federação Brasil da Esperança - FE BRASIL (PT/PC do B/PV) / SOLIDARIEDADE / Federação PSOL REDE (PSOL/REDE) / PSB / AGIR / AVANTE / PROS", "nv" : "GERALDO ALCKMIN", "e" : "s", "st" : "2º turno", "dvt" : "Válido", "vap" : "633748", "pvap" : "34,39" }, 
{ "seq" : "3", "sqcand" : "280001607833", "n" : "15", "nm" : "SIMONE TEBET", "cc" : "MDB - MDB / Federação PSDB Cidadania (PSDB/CIDADANIA) / PODE", "nv" : "MARA GABRILLI", "e" : "n", "st" : "Não eleito", "dvt" : "Válido", "vap" : "55989", "pvap" : "3,04" }, 
{ "seq" : "4", "sqcand" : "280001612393", "n" : "12", "nm" : "CIRO GOMES", "cc" : "PDT", "nv" : "ANA PAULA MATOS", "e" : "n", "st" : "Não eleito", "dvt" : "Válido", "vap" : "29437", "pvap" : "1,60" }, 
{ "seq" : "5", "sqcand" : "280001644128", "n" : "44", "nm" : "SORAYA THRONICKE", "cc" : "UNIÃO", "nv" : "MARCOS CINTRA", "e" : "n", "st" : "Não eleito", "dvt" : "Válido", "vap" : "12715", "pvap" : "0,69" }, 
{ "seq" : "6", "sqcand" : "280001603612", "n" : "30", "nm" : "FELIPE D&apos;AVILA", "cc" : "NOVO", "nv" : "TIAGO MITRAUD", "e" : "n", "st" : "Não eleito", "dvt" : "Válido", "vap" : "4371", "pvap" : "0,24" }, 
{ "seq" : "7", "sqcand" : "280001734029", "n" : "14", "nm" : "PADRE KELMON", "cc" : "PTB", "nv" : "PASTOR GAMONAL", "e" : "n", "st" : "Não eleito", "dvt" : "Válido", "vap" : "2545", "pvap" : "0,14" }, 
{ "seq" : "8", "sqcand" : "280001600167", "n" : "21", "nm" : "SOFIA MANZANO", "cc" : "PCB", "nv" : "ANTONIO ALVES", "e" : "n", "st" : "Não eleito", "dvt" : "Válido", "vap" : "406", "pvap" : "0,02" }, 
{ "seq" : "9", "sqcand" : "280001602702", "n" : "80", "nm" : "LÉO PÉRICLES", "cc" : "UP", "nv" : "SAMARA MARTINS", "e" : "n", "st" : "Não eleito", "dvt" : "Válido", "vap" : "366", "pvap" : "0,02" }, 
{ "seq" : "10", "sqcand" : "280001607831", "n" : "16", "nm" : "VERA", "cc" : "PSTU", "nv" : "RAQUEL TREMEMBÉ", "e" : "n", "st" : "Não eleito", "dvt" : "Válido", "vap" : "250", "pvap" : "0,01" }, 
{ "seq" : "11", "sqcand" : "280001677435", "n" : "27", "nm" : "CONSTITUINTE EYMAEL", "cc" : "DC", "nv" : "PROFESSOR BRAVO", "e" : "n", "st" : "Não eleito", "dvt" : "Válido", "vap" : "195", "pvap" : "0,01" } ] }