{ "ele" : "544", "tpabr" : "uf", "cdabr" : "AC", "carper" : "1", "md" : "S", "t" : "1", "f" : "o", "dg" : "04/10/2022", "hg" : "12:07:45", "dt" : "02/10/2022", "ht" : "21:19:27", "dv" : "s", "tf" : "s", "v" : "1", "esae" : "n", "mnae" : "", "s" : "2124", "st" : "2124", "pst" : "100,00", "snt" : "0", "psnt" : "0,00", "si" : "2124", "psi" : "100,00", "sni" : "0", "psni" : "0,00", "sa" : "2124", "psa" : "100,00", "sna" : "0", "psna" : "0,00", "e" : "587738", "ea" : "587738", "pea" : "100,00", "ena" : "0", "pena" : "0,00", "esi" : "587738", "pesi" : "100,00", "esni" : "0", "pesni" : "0,00", "c" : "455903", "pc" : "77,57", "a" : "131835", "pa" : "22,43", "vscv" : "0", "vnom" : "440917", "pvnom" : "100,00", "vvc" : "440917", "pvvc" : "96,71", "vb" : "4664", "pvb" : "1,03", "tvn" : "10322", "ptvn" : "2,26", "vn" : "10322", "pvn" : "100,00", "vnt" : "0", "pvnt" : "0,00", "vp" : "0", "pvp" : "0,00", "vv" : "440917", "pvv" : "100,00", "van" : "0", "pvan" : "0,00", "vansj" : "0", "pvansj" : "0,00", "tv" : "455903", "cand" : [ 
{ "seq" : "1", "sqcand" : "280001618036", "n" : "22", "nm" : "JAIR BOLSONARO", "cc" : "PL - PP / REPUBLICANOS / PL", "nv" : "BRAGA NETTO", "e" : "s", "st" : "2º turno", "dvt" : "Válido", "vap" : "275582", "pvap" : "62,50" }, 
{ "seq" : "2", "sqcand" : "280001607829", "n" : "13", "nm" : "LULA", "cc" : "PT - Federação Brasil da Esperança - FE BRASIL (PT/PC do B/PV) / SOLIDARIEDADE / Federação PSOL REDE (PSOL/REDE) / PSB / AGIR / AVANTE / PROS", "nv" : "GERALDO ALCKMIN", "e" : "s", "st" : "2º turno", "dvt" : "Válido", "vap" : "129022", "pvap" : "29,26" }, 
{ "seq" : "3", "sqcand" : "280001607833", "n" : "15", "nm" : "SIMONE TEBET", "cc" : "MDB - MDB / Federação PSDB Cidadania (PSDB/CIDADANIA) / PODE", "nv" : "MARA GABRILLI", "e" : "n", "st" : "Não eleito", "dvt" : "Válido", "vap" : "20122", "pvap" : "4,56" }, 
{ "seq" : "4", "sqcand" : "280001612393", "n" : "12", "nm" : "CIRO GOMES", "cc" : "PDT", "nv" : "ANA PAULA MATOS", "e" : "n", "st" : "Não eleito", "dvt" : "Válido", "vap" : "12314", "pvap" : "2,79" }, 
{ "seq" : "5", "sqcand" : "280001644128", "n" : "44", "nm" : "SORAYA THRONICKE", "cc" : "UNIÃO", "nv" : "MARCOS CINTRA", "e" : "n", "st" : "Não eleito", "dvt" : "Válido", "vap" : "2444", "pvap" : "0,55" }, 
{ "seq" : "6", "sqcand" : "280001603612", "n" : "30", "nm" : "FELIPE D&apos;AVILA", "cc" : "NOVO", "nv" : "TIAGO MITRAUD", "e" : "n", "st" : "Não eleito", "dvt" : "Válido", "vap" : "825", "pvap" : "0,19" }, 
{ "seq" : "7", "sqcand" : "280001734029", "n" : "14", "nm" : "PADRE KELMON", "cc" : "PTB", "nv" : "PASTOR GAMONAL", "e" : "n", "st" : "Não eleito", "dvt" : "Válido", "vap" : "279", "pvap" : "0,06" }, 
{ "seq" : "8", "sqcand" : "280001600167", "n" : "21", "nm" : "SOFIA MANZANO", "cc" : "PCB", "nv" : "ANTONIO ALVES", "e" : "n", "st" : "Não eleito", "dvt" : "Válido", "vap" : "144", "pvap" : "0,03" }, 
{ "seq" : "9", "sqcand" : "280001607831", "n" : "16", "nm" : "VERA", "cc" : "PSTU", "nv" : "RAQUEL TREMEMBÉ", "e" : "n", "st" : "Não eleito", "dvt" : "Válido", "vap" : "77", "pvap" : "0,02" }, 
{ "seq" : "10", "sqcand" : "280001602702", "n" : "80", "nm" : "LÉO PÉRICLES", "cc" : "UP", "nv" : "SAMARA MARTINS", "e" : "n", "st" : "Não eleito", "dvt" : "Válido", "vap" : "64", "pvap" : "0,01" }, 
{ "seq" : "11", "sqcand" : "280001677435", "n" : "27", "nm" : "CONSTITUINTE EYMAEL", "cc" : "DC", "nv" : "PROFESSOR BRAVO", "e" : "n", "st" : "Não eleito", "dvt" : "Válido", "vap" : "44", "pvap" : "0,01" } ] }