{ "ele" : "544", "tpabr" : "uf", "cdabr" : "CE", "carper" : "1", "md" : "S", "t" : "1", "f" : "o", "dg" : "04/10/2022", "hg" : "12:07:27", "dt" : "03/10/2022", "ht" : "00:57:19", "dv" : "s", "tf" : "s", "v" : "1", "esae" : "n", "mnae" : "", "s" : "22796", "st" : "22796", "pst" : "100,00", "snt" : "0", "psnt" : "0,00", "si" : "22796", "psi" : "100,00", "sni" : "0", "psni" : "0,00", "sa" : "22796", "psa" : "100,00", "sna" : "0", "psna" : "0,00", "e" : "6818732", "ea" : "6818732", "pea" : "100,00", "ena" : "0", "pena" : "0,00", "esi" : "6818732", "pesi" : "100,00", "esni" : "0", "pesni" : "0,00", "c" : "5628610", "pc" : "82,55", "a" : "1190122", "pa" : "17,45", "vscv" : "0", "vnom" : "5429264", "pvnom" : "100,00", "vvc" : "5429264", "pvvc" : "96,46", "vb" : "72246", "pvb" : "1,28", "tvn" : "127100", "ptvn" : "2,26", "vn" : "127100", "pvn" : "100,00", "vnt" : "0", "pvnt" : "0,00", "vp" : "0", "pvp" : "0,00", "vv" : "5429264", "pvv" : "100,00", "van" : "0", "pvan" : "0,00", "vansj" : "0", "pvansj" : "0,00", "tv" : "5628610", "cand" : [ 
{ "seq" : "1", "sqcand" : "280001607829", "n" : "13", "nm" : "LULA", "cc" : "PT - Federação Brasil da Esperança - FE BRASIL (PT/PC do B/PV) / SOLIDARIEDADE / Federação PSOL REDE (PSOL/REDE) / PSB / AGIR / AVANTE / PROS", "nv" : "GERALDO ALCKMIN", "e" : "s", "st" : "2º turno", "dvt" : "Válido", "vap" : "3578355", "pvap" : "65,91" }, 
{ "seq" : "7", "sqcand" : "280001734029", "n" : "14", "nm" : "PADRE KELMON", "cc" : "PTB", "nv" : "PASTOR GAMONAL", "e" : "n", "st" : "Não eleito", "dvt" : "Válido", "vap" : "2278", "pvap" : "0,04" }, 
{ "seq" : "4", "sqcand" : "280001607833", "n" : "15", "nm" : "SIMONE TEBET", "cc" : "MDB - MDB / Federação PSDB Cidadania (PSDB/CIDADANIA) / PODE", "nv" : "MARA GABRILLI", "e" : "n", "st" : "Não eleito", "dvt" : "Válido", "vap" : "66214", "pvap" : "1,22" }, 
{ "seq" : "10", "sqcand" : "280001607831", "n" : "16", "nm" : "VERA", "cc" : "PSTU", "nv" : "RAQUEL TREMEMBÉ", "e" : "n", "st" : "Não eleito", "dvt" : "Válido", "vap" : "717", "pvap" : "0,01" }, 
{ "seq" : "8", "sqcand" : "280001600167", "n" : "21", "nm" : "SOFIA MANZANO", "cc" : "PCB", "nv" : "ANTONIO ALVES", "e" : "n", "st" : "Não eleito", "dvt" : "Válido", "vap" : "1579", "pvap" : "0,03" }, 
{ "seq" : "2", "sqcand" : "280001618036", "n" : "22", "nm" : "JAIR BOLSONARO", "cc" : "PL - PP / REPUBLICANOS / PL", "nv" : "BRAGA NETTO", "e" : "s", "st" : "2º turno", "dvt" : "Válido", "vap" : "1377827", "pvap" : "25,38" }, 
{ "seq" : "11", "sqcand" : "280001677435", "n" : "27", "nm" : "CONSTITUINTE EYMAEL", "cc" : "DC", "nv" : "PROFESSOR BRAVO", "e" : "n", "st" : "Não eleito", "dvt" : "Válido", "vap" : "416", "pvap" : "0,01" }, 
{ "seq" : "6", "sqcand" : "280001603612", "n" : "30", "nm" : "FELIPE D&apos;AVILA", "cc" : "NOVO", "nv" : "TIAGO MITRAUD", "e" : "n", "st" : "Não eleito", "dvt" : "Válido", "vap" : "7030", "pvap" : "0,13" }, 
{ "seq" : "5", "sqcand" : "280001644128", "n" : "44", "nm" : "SORAYA THRONICKE", "cc" : "UNIÃO", "nv" : "MARCOS CINTRA", "e" : "n", "st" : "Não eleito", "dvt" : "Válido", "vap" : "24497", "pvap" : "0,45" }, 
{ "seq" : "9", "sqcand" : "280001602702", "n" : "80", "nm" : "LÉO PÉRICLES", "cc" : "UP", "nv" : "SAMARA MARTINS", "e" : "n", "st" : "Não eleito", "dvt" : "Válido", "vap" : "1129", "pvap" : "0,02" }, 
{ "seq" : "3", "sqcand" : "280001612393", "n" : "12", "nm" : "CIRO GOMES", "cc" : "PDT", "nv" : "ANA PAULA MATOS", "e" : "n", "st" : "Não eleito", "dvt" : "Válido", "vap" : "369222", "pvap" : "6,80" } ] }