{ "ele" : "544", "tpabr" : "uf", "cdabr" : "BA", "carper" : "1", "md" : "S", "t" : "1", "f" : "o", "dg" : "04/10/2022", "hg" : "12:07:14", "dt" : "03/10/2022", "ht" : "03:24:28", "dv" : "s", "tf" : "s", "v" : "1", "esae" : "n", "mnae" : "", "s" : "34424", "st" : "34424", "pst" : "100,00", "snt" : "0", "psnt" : "0,00", "si" : "34424", "psi" : "100,00", "sni" : "0", "psni" : "0,00", "sa" : "34424", "psa" : "100,00", "sna" : "0", "psna" : "0,00", "e" : "11283405", "ea" : "11283405", "pea" : "100,00", "ena" : "0", "pena" : "0,00", "esi" : "11283405", "pesi" : "100,00", "esni" : "0", "pesni" : "0,00", "c" : "8874841", "pc" : "78,65", "a" : "2408564", "pa" : "21,35", "vscv" : "0", "vnom" : "8423008", "pvnom" : "100,00", "vvc" : "8423008", "pvvc" : "94,91", "vb" : "123450", "pvb" : "1,39", "tvn" : "328383", "ptvn" : "3,70", "vn" : "328383", "pvn" : "100,00", "vnt" : "0", "pvnt" : "0,00", "vp" : "0", "pvp" : "0,00", "vv" : "8423008", "pvv" : "100,00", "van" : "0", "pvan" : "0,00", "vansj" : "0", "pvansj" : "0,00", "tv" : "8874841", "cand" : [ 
{ "seq" : "1", "sqcand" : "280001607829", "n" : "13", "nm" : "LULA", "cc" : "PT - Federação Brasil da Esperança - FE BRASIL (PT/PC do B/PV) / SOLIDARIEDADE / Federação PSOL REDE (PSOL/REDE) / PSB / AGIR / AVANTE / PROS", "nv" : "GERALDO ALCKMIN", "e" : "s", "st" : "2º turno", "dvt" : "Válido", "vap" : "5873081", "pvap" : "69,73" }, 
{ "seq" : "2", "sqcand" : "280001618036", "n" : "22", "nm" : "JAIR BOLSONARO", "cc" : "PL - PP / REPUBLICANOS / PL", "nv" : "BRAGA NETTO", "e" : "s", "st" : "2º turno", "dvt" : "Válido", "vap" : "2047599", "pvap" : "24,31" }, 
{ "seq" : "3", "sqcand" : "280001612393", "n" : "12", "nm" : "CIRO GOMES", "cc" : "PDT", "nv" : "ANA PAULA MATOS", "e" : "n", "st" : "Não eleito", "dvt" : "Válido", "vap" : "217224", "pvap" : "2,58" }, 
{ "seq" : "4", "sqcand" : "280001607833", "n" : "15", "nm" : "SIMONE TEBET", "cc" : "MDB - MDB / Federação PSDB Cidadania (PSDB/CIDADANIA) / PODE", "nv" : "MARA GABRILLI", "e" : "n", "st" : "Não eleito", "dvt" : "Válido", "vap" : "197305", "pvap" : "2,34" }, 
{ "seq" : "5", "sqcand" : "280001644128", "n" : "44", "nm" : "SORAYA THRONICKE", "cc" : "UNIÃO", "nv" : "MARCOS CINTRA", "e" : "n", "st" : "Não eleito", "dvt" : "Válido", "vap" : "65046", "pvap" : "0,77" }, 
{ "seq" : "6", "sqcand" : "280001603612", "n" : "30", "nm" : "FELIPE D&apos;AVILA", "cc" : "NOVO", "nv" : "TIAGO MITRAUD", "e" : "n", "st" : "Não eleito", "dvt" : "Válido", "vap" : "11605", "pvap" : "0,14" }, 
{ "seq" : "7", "sqcand" : "280001734029", "n" : "14", "nm" : "PADRE KELMON", "cc" : "PTB", "nv" : "PASTOR GAMONAL", "e" : "n", "st" : "Não eleito", "dvt" : "Válido", "vap" : "4898", "pvap" : "0,06" }, 
{ "seq" : "8", "sqcand" : "280001600167", "n" : "21", "nm" : "SOFIA MANZANO", "cc" : "PCB", "nv" : "ANTONIO ALVES", "e" : "n", "st" : "Não eleito", "dvt" : "Válido", "vap" : "2423", "pvap" : "0,03" }, 
{ "seq" : "9", "sqcand" : "280001602702", "n" : "80", "nm" : "LÉO PÉRICLES", "cc" : "UP", "nv" : "SAMARA MARTINS", "e" : "n", "st" : "Não eleito", "dvt" : "Válido", "vap" : "1926", "pvap" : "0,02" }, 
{ "seq" : "10", "sqcand" : "280001607831", "n" : "16", "nm" : "VERA", "cc" : "PSTU", "nv" : "RAQUEL TREMEMBÉ", "e" : "n", "st" : "Não eleito", "dvt" : "Válido", "vap" : "1148", "pvap" : "0,01" }, 
{ "seq" : "11", "sqcand" : "280001677435", "n" : "27", "nm" : "CONSTITUINTE EYMAEL", "cc" : "DC", "nv" : "PROFESSOR BRAVO", "e" : "n", "st" : "Não eleito", "dvt" : "Válido", "vap" : "753", "pvap" : "0,01" } ] }