{ "ele" : "544", "tpabr" : "uf", "cdabr" : "SE", "carper" : "1", "md" : "S", "t" : "1", "f" : "o", "dg" : "04/10/2022", "hg" : "12:07:24", "dt" : "02/10/2022", "ht" : "22:52:14", "dv" : "s", "tf" : "s", "v" : "1", "esae" : "n", "mnae" : "", "s" : "5498", "st" : "5498", "pst" : "100,00", "snt" : "0", "psnt" : "0,00", "si" : "5498", "psi" : "100,00", "sni" : "0", "psni" : "0,00", "sa" : "5498", "psa" : "100,00", "sna" : "0", "psna" : "0,00", "e" : "1671376", "ea" : "1671376", "pea" : "100,00", "ena" : "0", "pena" : "0,00", "esi" : "1671376", "pesi" : "100,00", "esni" : "0", "pesni" : "0,00", "c" : "1364724", "pc" : "81,65", "a" : "306652", "pa" : "18,35", "vscv" : "0", "vnom" : "1298432", "pvnom" : "100,00", "vvc" : "1298432", "pvvc" : "95,14", "vb" : "20224", "pvb" : "1,48", "tvn" : "46068", "ptvn" : "3,38", "vn" : "46068", "pvn" : "100,00", "vnt" : "0", "pvnt" : "0,00", "vp" : "0", "pvp" : "0,00", "vv" : "1298432", "pvv" : "100,00", "van" : "0", "pvan" : "0,00", "vansj" : "0", "pvansj" : "0,00", "tv" : "1364724", "cand" : [ 
{ "seq" : "1", "sqcand" : "280001607829", "n" : "13", "nm" : "LULA", "cc" : "PT - Federação Brasil da Esperança - FE BRASIL (PT/PC do B/PV) / SOLIDARIEDADE / Federação PSOL REDE (PSOL/REDE) / PSB / AGIR / AVANTE / PROS", "nv" : "GERALDO ALCKMIN", "e" : "s", "st" : "2º turno", "dvt" : "Válido", "vap" : "828716", "pvap" : "63,82" }, 
{ "seq" : "7", "sqcand" : "280001734029", "n" : "14", "nm" : "PADRE KELMON", "cc" : "PTB", "nv" : "PASTOR GAMONAL", "e" : "n", "st" : "Não eleito", "dvt" : "Válido", "vap" : "631", "pvap" : "0,05" }, 
{ "seq" : "3", "sqcand" : "280001607833", "n" : "15", "nm" : "SIMONE TEBET", "cc" : "MDB - MDB / Federação PSDB Cidadania (PSDB/CIDADANIA) / PODE", "nv" : "MARA GABRILLI", "e" : "n", "st" : "Não eleito", "dvt" : "Válido", "vap" : "42073", "pvap" : "3,24" }, 
{ "seq" : "8", "sqcand" : "280001607831", "n" : "16", "nm" : "VERA", "cc" : "PSTU", "nv" : "RAQUEL TREMEMBÉ", "e" : "n", "st" : "Não eleito", "dvt" : "Válido", "vap" : "589", "pvap" : "0,05" }, 
{ "seq" : "10", "sqcand" : "280001600167", "n" : "21", "nm" : "SOFIA MANZANO", "cc" : "PCB", "nv" : "ANTONIO ALVES", "e" : "n", "st" : "Não eleito", "dvt" : "Válido", "vap" : "364", "pvap" : "0,03" }, 
{ "seq" : "2", "sqcand" : "280001618036", "n" : "22", "nm" : "JAIR BOLSONARO", "cc" : "PL - PP / REPUBLICANOS / PL", "nv" : "BRAGA NETTO", "e" : "s", "st" : "2º turno", "dvt" : "Válido", "vap" : "378610", "pvap" : "29,16" }, 
{ "seq" : "11", "sqcand" : "280001677435", "n" : "27", "nm" : "CONSTITUINTE EYMAEL", "cc" : "DC", "nv" : "PROFESSOR BRAVO", "e" : "n", "st" : "Não eleito", "dvt" : "Válido", "vap" : "196", "pvap" : "0,02" }, 
{ "seq" : "6", "sqcand" : "280001603612", "n" : "30", "nm" : "FELIPE D&apos;AVILA", "cc" : "NOVO", "nv" : "TIAGO MITRAUD", "e" : "n", "st" : "Não eleito", "dvt" : "Válido", "vap" : "2194", "pvap" : "0,17" }, 
{ "seq" : "5", "sqcand" : "280001644128", "n" : "44", "nm" : "SORAYA THRONICKE", "cc" : "UNIÃO", "nv" : "MARCOS CINTRA", "e" : "n", "st" : "Não eleito", "dvt" : "Válido", "vap" : "4416", "pvap" : "0,34" }, 
{ "seq" : "9", "sqcand" : "280001602702", "n" : "80", "nm" : "LÉO PÉRICLES", "cc" : "UP", "nv" : "SAMARA MARTINS", "e" : "n", "st" : "Não eleito", "dvt" : "Válido", "vap" : "396", "pvap" : "0,03" }, 
{ "seq" : "4", "sqcand" : "280001612393", "n" : "12", "nm" : "CIRO GOMES", "cc" : "PDT", "nv" : "ANA PAULA MATOS", "e" : "n", "st" : "Não eleito", "dvt" : "Válido", "vap" : "40247", "pvap" : "3,10" } ] }